@relation lunges_and_sidelunges_vs_squats

@attributes step INTEGER
@attributes pc1 REAL
@attributes pc2 REAL
@attributes pc3 REAL
@attributes label {-1.0, 1.0}
@attributes Window string

@data
0,11,5,3,-1.0,"0"
10,9,1,10,-1.0,"0"
20,9,4,7,-1.0,"0"
30,9,4,7,-1.0,"0"
40,6,6,3,-1.0,"0"
50,4,9,2,-1.0,"0;1"
60,3,13,3,-1.0,"0;1"
70,2,13,3,-1.0,"0;1"
80,3,13,5,-1.0,"0;1"
90,3,11,3,-1.0,"0;1"
100,7,6,3,-1.0,"1;2"
110,7,4,5,-1.0,"1;2"
120,10,7,1,-1.0,"1;2"
130,13,8,1,-1.0,"1;2"
140,14,8,1,-1.0,"1;2"
150,14,8,1,-1.0,"2;3"
160,14,8,1,-1.0,"2;3"
170,14,8,0,-1.0,"2;3"
180,15,10,13,-1.0,"2;3"
190,15,11,15,1.0,"2;3"
200,15,10,15,1.0,"3;4"
210,15,10,15,1.0,"3;4"
220,15,10,14,1.0,"3;4"
230,15,10,10,1.0,"3;4"
240,14,13,8,1.0,"3;4"
250,12,15,11,1.0,"4;5"
260,12,15,10,1.0,"4;5"
270,12,15,7,1.0,"4;5"
280,12,15,5,1.0,"4;5"
290,14,12,3,1.0,"4;5"
300,15,10,12,1.0,"5;6"
310,15,10,15,1.0,"5;6"
320,15,10,14,1.0,"5;6"
330,15,9,14,1.0,"5;6"
340,15,7,14,-1.0,"5;6"
350,10,3,10,-1.0,"6;7"
360,7,1,9,-1.0,"6;7"
370,9,2,13,-1.0,"6;7"
380,8,4,10,-1.0,"6;7"
390,6,5,14,-1.0,"6;7"
400,3,10,12,-1.0,"7;8"
410,0,13,7,-1.0,"7;8"
420,0,13,10,-1.0,"7;8"
430,1,13,10,-1.0,"7;8"
440,4,11,9,-1.0,"7;8"
450,8,7,14,-1.0,"8;9"
460,11,4,15,-1.0,"8;9"
470,13,6,13,-1.0,"8;9"
480,14,7,13,-1.0,"8;9"
490,12,5,4,-1.0,"8;9"
500,10,2,9,-1.0,"9;10"
510,7,0,11,-1.0,"9;10"
520,8,1,14,-1.0,"9;10"
530,6,2,3,-1.0,"9;10"
540,5,7,2,-1.0,"9;10"
550,4,11,6,-1.0,"10;11"
560,1,14,12,-1.0,"10;11"
570,0,14,13,-1.0,"10;11"
580,0,14,13,-1.0,"10;11"
590,1,13,12,-1.0,"10;11"
600,4,10,7,-1.0,"11;12"
610,5,5,7,-1.0,"11;12"
620,7,2,11,-1.0,"11;12"
630,10,3,10,-1.0,"11;12"
640,12,7,3,-1.0,"11;12"
650,13,8,2,-1.0,"12;13"
660,13,8,4,-1.0,"12;13"
670,13,8,4,-1.0,"12;13"
680,13,8,4,-1.0,"12;13"
690,11,6,4,-1.0,"12;13"
700,10,0,13,-1.0,"13;14"
710,6,0,13,-1.0,"13;14"
720,6,0,11,-1.0,"13;14"
730,5,3,7,-1.0,"13;14"
740,3,8,4,-1.0,"13;14"
750,1,13,12,-1.0,"14;15"
760,2,14,15,-1.0,"14;15"
770,2,14,15,-1.0,"14;15"
780,1,14,15,-1.0,"14;15"
790,2,14,14,-1.0,"14;15"
800,3,11,9,-1.0,"15;16"
810,4,7,7,-1.0,"15;16"
820,7,1,13,-1.0,"15;16"
830,8,1,14,-1.0,"15;16"
840,11,4,13,-1.0,"15;16"
850,13,6,10,-1.0,"16;17"
860,11,5,2,-1.0,"16;17"
870,10,1,6,-1.0,"16;17"
880,5,0,11,-1.0,"16;17"
890,5,0,8,-1.0,"16;17"
900,5,3,5,-1.0,"17;18"
910,4,8,2,-1.0,"17;18"
920,2,14,12,-1.0,"17;18"
930,1,14,12,-1.0,"17;18"
940,1,14,12,-1.0,"17;18"
950,1,14,13,-1.0,"18;19"
960,2,14,12,-1.0,"18;19"
970,3,11,8,-1.0,"18;19"
980,5,5,4,-1.0,"18;19"
990,7,1,8,-1.0,"18;19"
1000,9,1,8,-1.0,"19;20"
1010,11,5,0,-1.0,"19;20"
1020,11,4,0,-1.0,"19;20"
1030,9,0,0,-1.0,"19;20"
1040,8,0,14,-1.0,"19;20"
1050,7,2,4,-1.0,"20;21"
1060,4,5,2,-1.0,"20;21"
1070,3,9,5,-1.0,"20;21"
1080,0,12,6,-1.0,"20;21"
1090,0,13,3,-1.0,"20;21"
1100,0,14,7,-1.0,"21;22"
1110,0,14,7,-1.0,"21;22"
1120,0,12,2,-1.0,"21;22"
1130,2,11,11,-1.0,"21;22"
1140,4,9,8,-1.0,"21;22"
1150,2,7,13,-1.0,"22;23"
1160,5,2,12,-1.0,"22;23"
1170,8,0,12,-1.0,"22;23"
1180,10,2,2,-1.0,"22;23"
1190,12,5,2,-1.0,"22;23"
1200,13,6,0,-1.0,"23;24"
1210,11,5,0,-1.0,"23;24"
1220,7,0,0,-1.0,"23;24"
1230,7,0,5,-1.0,"23;24"
1240,7,2,8,-1.0,"23;24"
1250,5,5,11,-1.0,"24;25"
1260,3,9,8,-1.0,"24;25"
1270,0,12,2,-1.0,"24;25"
1280,0,12,9,-1.0,"24;25"
1290,0,14,2,-1.0,"24;25"
1300,0,13,5,-1.0,"25;26"
1310,1,12,4,-1.0,"25;26"
1320,3,11,10,-1.0,"25;26"
1330,4,8,12,-1.0,"25;26"
1340,6,1,5,-1.0,"25;26"
1350,6,1,11,-1.0,"26;27"
1360,10,3,3,-1.0,"26;27"
1370,12,6,0,-1.0,"26;27"
1380,12,6,0,-1.0,"26;27"
1390,15,8,2,1.0,"26;27"
1400,15,8,1,1.0,"27;28"
1410,14,8,1,1.0,"27;28"
1420,15,8,2,1.0,"27;28"
1430,14,11,1,1.0,"27;28"
1440,12,15,0,1.0,"27;28"
1450,11,15,0,1.0,"28;29"
1460,12,15,0,1.0,"28;29"
1470,12,15,0,1.0,"28;29"
1480,15,9,1,1.0,"28;29"
1490,14,8,2,1.0,"28;29"
1500,14,7,2,1.0,"29;30"
1510,11,3,7,-1.0,"29;30"
1520,8,0,0,-1.0,"29;30"
1530,8,0,13,-1.0,"29;30"
1540,6,1,5,-1.0,"29;30"
1550,5,3,1,-1.0,"30;31"
1560,4,7,1,-1.0,"30;31"
1570,2,11,2,-1.0,"30;31"
1580,0,12,8,-1.0,"30;31"
1590,0,13,4,-1.0,"30;31"
1600,0,13,3,-1.0,"31;32"
1610,0,13,1,-1.0,"31;32"
1620,1,12,6,-1.0,"31;32"
1630,3,11,8,-1.0,"31;32"
1640,4,9,11,-1.0,"31;32"
1650,5,2,7,-1.0,"32;33"
1660,7,0,6,-1.0,"32;33"
1670,10,1,7,-1.0,"32;33"
1680,12,5,3,-1.0,"32;33"
1690,13,6,1,-1.0,"32;33"
1700,14,7,1,-1.0,"33;34"
1710,13,7,2,-1.0,"33;34"
1720,10,3,6,-1.0,"33;34"
1730,9,3,10,-1.0,"33;34"
1740,4,2,12,-1.0,"33;34"
1750,7,5,5,-1.0,"34;35"
1760,5,8,6,-1.0,"34;35"
1770,3,12,9,-1.0,"34;35"
1780,2,14,8,-1.0,"34;35"
1790,2,12,7,-1.0,"34;35"
1800,6,8,9,-1.0,"35;36"
1810,9,4,15,-1.0,"35;36"
1820,10,4,15,-1.0,"35;36"
1830,10,4,3,-1.0,"35;36"
1840,13,8,0,-1.0,"35;36"
1850,14,8,0,-1.0,"36;37"
1860,10,4,0,-1.0,"36;37"
1870,9,2,6,-1.0,"36;37"
1880,9,4,7,-1.0,"36;37"
1890,8,5,4,-1.0,"36;37"
1900,6,8,6,-1.0,"37;38"
1910,2,11,7,-1.0,"37;38"
1920,2,13,6,-1.0,"37;38"
1930,3,12,5,-1.0,"37;38"
1940,5,10,12,-1.0,"37;38"
1950,7,7,11,-1.0,"38;39"
1960,8,3,3,-1.0,"38;39"
1970,10,4,4,-1.0,"38;39"
1980,13,8,0,-1.0,"38;39"
1990,13,7,0,-1.0,"38;39"
2000,10,4,0,-1.0,"39;40"
2010,7,0,13,-1.0,"39;40"
2020,9,3,14,-1.0,"39;40"
2030,8,5,7,-1.0,"39;40"
2040,6,9,5,-1.0,"39;40"
2050,2,12,7,-1.0,"40;41"
2060,2,13,6,-1.0,"40;41"
2070,2,13,7,-1.0,"40;41"
2080,4,9,8,-1.0,"40;41"
2090,8,5,6,-1.0,"40;41"
2100,9,4,6,-1.0,"41;42"
2110,9,1,8,-1.0,"41;42"
2120,11,6,0,-1.0,"41;42"
2130,13,7,0,-1.0,"41;42"
2140,14,8,0,-1.0,"41;42"
2150,13,8,1,-1.0,"42;43"
2160,10,3,6,-1.0,"42;43"
2170,8,3,10,-1.0,"42;43"
2180,8,4,9,-1.0,"42;43"
2190,6,7,5,-1.0,"42;43"
2200,5,9,5,-1.0,"43;44"
2210,2,12,6,-1.0,"43;44"
2220,1,12,6,-1.0,"43;44"
2230,1,12,7,-1.0,"43;44"
2240,3,11,10,-1.0,"43;44"
2250,6,6,11,-1.0,"44;45"
2260,9,4,12,-1.0,"44;45"
2270,10,5,11,-1.0,"44;45"
2280,13,8,5,-1.0,"44;45"
2290,14,8,3,-1.0,"44;45"
2300,11,6,6,-1.0,"45;46"
2310,7,1,9,-1.0,"45;46"
2320,8,3,10,-1.0,"45;46"
2330,7,4,10,-1.0,"45;46"
2340,5,7,8,-1.0,"45;46"
2350,3,10,5,-1.0,"46;47"
2360,3,12,5,-1.0,"46;47"
2370,3,12,7,-1.0,"46;47"
2380,2,11,5,-1.0,"46;47"
2390,4,9,2,-1.0,"46;47"
2400,8,4,6,-1.0,"47;48"
2410,8,4,7,-1.0,"47;48"
2420,10,4,9,-1.0,"47;48"
2430,13,7,4,-1.0,"47;48"
2440,14,8,4,-1.0,"47;48"
2450,12,6,1,-1.0,"48;49"
2460,11,3,3,-1.0,"48;49"
2470,7,0,3,-1.0,"48;49"
2480,6,0,4,-1.0,"48;49"
2490,4,1,3,-1.0,"48;49"
2500,4,5,2,-1.0,"49;50"
2510,2,9,3,-1.0,"49;50"
2520,0,12,10,-1.0,"49;50"
2530,0,13,4,-1.0,"49;50"
2540,0,13,2,-1.0,"49;50"
2550,0,13,7,-1.0,"50;51"
2560,0,13,6,-1.0,"50;51"
2570,1,12,9,-1.0,"50;51"
2580,3,11,9,-1.0,"50;51"
2590,4,8,11,-1.0,"50;51"
2600,7,4,12,-1.0,"51;52"
2610,9,1,6,-1.0,"51;52"
2620,11,4,1,-1.0,"51;52"
2630,12,6,0,-1.0,"51;52"
2640,12,7,3,-1.0,"51;52"
2650,9,1,7,-1.0,"52;53"
2660,8,2,10,-1.0,"52;53"
2670,3,3,10,-1.0,"52;53"
2680,2,7,6,-1.0,"52;53"
2690,4,10,6,-1.0,"52;53"
2700,2,13,3,-1.0,"53;54"
2710,2,14,5,-1.0,"53;54"
2720,1,13,7,-1.0,"53;54"
2730,4,11,8,-1.0,"53;54"
2740,7,6,14,-1.0,"53;54"
2750,8,3,14,-1.0,"54;55"
2760,10,3,3,-1.0,"54;55"
2770,12,7,0,-1.0,"54;55"
2780,14,8,0,-1.0,"54;55"
2790,10,5,3,-1.0,"54;55"
2800,8,3,8,-1.0,"55;56"
2810,7,5,1,-1.0,"55;56"
2820,6,9,3,-1.0,"55;56"
2830,4,11,9,-1.0,"55;56"
2840,3,12,9,-1.0,"55;56"
2850,3,12,8,-1.0,"56;57"
2860,5,9,7,-1.0,"56;57"
2870,9,5,12,-1.0,"56;57"
2880,9,2,10,-1.0,"56;57"
2890,11,4,7,-1.0,"56;57"
2900,14,8,4,-1.0,"57;58"
2910,14,8,4,-1.0,"57;58"
2920,11,4,4,-1.0,"57;58"
2930,9,0,10,-1.0,"57;58"
2940,6,0,12,-1.0,"57;58"
2950,6,0,12,-1.0,"58;59"
2960,4,3,5,-1.0,"58;59"
2970,4,8,3,-1.0,"58;59"
2980,1,12,7,-1.0,"58;59"
2990,0,14,4,-1.0,"58;59"
3000,0,14,5,-1.0,"59;60"
3010,0,14,6,-1.0,"59;60"
3020,0,14,6,-1.0,"59;60"
3030,3,12,12,-1.0,"59;60"
3040,3,9,1,-1.0,"59;60"
3050,5,1,9,-1.0,"60;61"
3060,6,1,12,-1.0,"60;61"
3070,10,2,8,-1.0,"60;61"
3080,11,5,3,-1.0,"60;61"
3090,9,2,8,-1.0,"60;61"
3100,5,0,12,-1.0,"61;62"
3110,3,2,11,-1.0,"61;62"
3120,6,5,7,-1.0,"61;62"
3130,8,6,2,-1.0,"61;62"
3140,6,8,7,-1.0,"61;62"
3150,4,11,6,-1.0,"62;63"
3160,3,11,5,-1.0,"62;63"
3170,6,9,8,-1.0,"62;63"
3180,8,4,14,-1.0,"62;63"
3190,9,2,15,-1.0,"62;63"
3200,9,3,8,-1.0,"63;64"
3210,11,7,1,-1.0,"63;64"
3220,14,9,1,-1.0,"63;64"
3230,13,8,1,-1.0,"63;64"
3240,12,7,1,-1.0,"63;64"
3250,11,5,2,-1.0,"64;65"
3260,7,0,4,-1.0,"64;65"
3270,6,0,8,-1.0,"64;65"
3280,7,1,11,-1.0,"64;65"
3290,5,3,3,-1.0,"64;65"
3300,4,8,2,-1.0,"65;66"
3310,3,12,5,-1.0,"65;66"
3320,1,14,6,-1.0,"65;66"
3330,1,15,2,-1.0,"65;66"
3340,0,15,3,-1.0,"65;66"
3350,2,14,4,-1.0,"66;67"
3360,3,12,4,-1.0,"66;67"
3370,4,9,2,-1.0,"66;67"
3380,6,2,7,-1.0,"66;67"
3390,6,1,12,-1.0,"66;67"
3400,10,1,5,-1.0,"67;68"
3410,12,5,2,-1.0,"67;68"
3420,13,7,2,-1.0,"67;68"
3430,13,7,3,-1.0,"67;68"
3440,10,3,7,-1.0,"67;68"
3450,8,0,11,-1.0,"68;69"
3460,6,0,11,-1.0,"68;69"
3470,7,1,10,-1.0,"68;69"
3480,7,5,2,-1.0,"68;69"
3490,4,9,7,-1.0,"68;69"
3500,2,12,4,-1.0,"69;70"
3510,1,13,1,-1.0,"69;70"
3520,1,13,4,-1.0,"69;70"
3530,2,13,10,-1.0,"69;70"
3540,3,11,11,-1.0,"69;70"
3550,5,9,11,-1.0,"70;71"
3560,7,3,8,-1.0,"70;71"
3570,7,1,6,-1.0,"70;71"
3580,10,1,5,-1.0,"70;71"
3590,11,4,1,-1.0,"70;71"
3600,11,5,3,-1.0,"71;72"
3610,9,2,8,-1.0,"71;72"
3620,8,2,10,-1.0,"71;72"
3630,9,4,6,-1.0,"71;72"
3640,7,7,3,-1.0,"71;72"
3650,4,9,8,-1.0,"72;73"
3660,5,12,15,-1.0,"72;73"
3670,5,12,15,-1.0,"72;73"
3680,5,11,15,-1.0,"72;73"
3690,6,8,8,-1.0,"72;73"
3700,9,4,4,-1.0,"73;74"
3710,9,3,11,-1.0,"73;74"
3720,9,4,7,-1.0,"73;74"
3730,11,7,1,-1.0,"73;74"
3740,14,8,0,-1.0,"73;74"
3750,13,8,1,-1.0,"74;75"
3760,10,1,8,-1.0,"74;75"
3770,6,0,5,-1.0,"74;75"
3780,8,2,10,-1.0,"74;75"
3790,9,4,12,-1.0,"74;75"
3800,5,8,12,-1.0,"75;76"
3810,3,13,12,-1.0,"75;76"
3820,2,13,13,-1.0,"75;76"
3830,2,12,13,-1.0,"75;76"
3840,2,11,13,-1.0,"75;76"
3850,7,7,11,-1.0,"76;77"
3860,9,2,14,-1.0,"76;77"
3870,10,0,14,-1.0,"76;77"
3880,11,5,6,-1.0,"76;77"
3890,14,9,14,1.0,"76;77"
3900,14,9,15,1.0,"77;78"
3910,15,10,15,1.0,"77;78"
3920,14,10,14,1.0,"77;78"
3930,14,11,13,1.0,"77;78"
3940,12,15,0,1.0,"77;78"
3950,12,15,11,1.0,"78;79"
3960,11,15,14,1.0,"78;79"
3970,12,15,8,1.0,"78;79"
3980,13,11,2,1.0,"78;79"
3990,14,10,0,1.0,"78;79"
4000,14,10,5,1.0,"79;80"
4010,15,10,15,1.0,"79;80"
4020,15,10,15,1.0,"79;80"
4030,11,5,8,1.0,"79;80"
4040,8,2,11,-1.0,"79;80"
4050,7,5,9,-1.0,"80;81"
4060,5,7,2,-1.0,"80;81"
4070,3,9,4,-1.0,"80;81"
4080,2,13,8,-1.0,"80;81"
4090,2,12,10,-1.0,"80;81"
4100,3,11,11,-1.0,"81;82"
4110,4,9,9,-1.0,"81;82"
4120,7,4,14,-1.0,"81;82"
4130,9,3,14,-1.0,"81;82"
4140,10,5,3,-1.0,"81;82"
4150,13,7,1,-1.0,"82;83"
4160,13,6,2,-1.0,"82;83"
4170,11,4,4,-1.0,"82;83"
4180,9,0,11,-1.0,"82;83"
4190,6,0,12,-1.0,"82;83"
4200,6,1,10,-1.0,"83;84"
4210,6,4,6,-1.0,"83;84"
4220,4,9,1,-1.0,"83;84"
4230,1,12,5,-1.0,"83;84"
4240,1,15,3,-1.0,"83;84"
4250,1,15,5,-1.0,"84;85"
4260,0,15,5,-1.0,"84;85"
4270,2,12,9,-1.0,"84;85"
4280,2,11,4,-1.0,"84;85"
4290,5,8,1,-1.0,"84;85"
4300,7,2,6,-1.0,"85;86"
4310,8,1,7,-1.0,"85;86"
4320,10,4,3,-1.0,"85;86"
4330,11,6,2,-1.0,"85;86"
4340,10,3,6,-1.0,"85;86"
4350,7,0,14,-1.0,"86;87"
4360,7,0,13,-1.0,"86;87"
4370,5,2,4,-1.0,"86;87"
4380,4,6,4,-1.0,"86;87"
4390,2,11,11,-1.0,"86;87"
4400,1,14,9,-1.0,"87;88"
4410,0,15,11,-1.0,"87;88"
4420,2,15,15,-1.0,"87;88"
4430,2,14,15,-1.0,"87;88"
4440,2,12,10,-1.0,"87;88"
4450,3,10,6,-1.0,"88;89"
4460,3,6,9,-1.0,"88;89"
4470,7,0,14,-1.0,"88;89"
4480,10,1,14,-1.0,"88;89"
4490,12,7,13,-1.0,"88;89"
4500,15,10,14,1.0,"89;90"
4510,15,11,15,1.0,"89;90"
4520,12,10,15,1.0,"89;90"
4530,15,11,14,1.0,"89;90"
4540,13,15,7,1.0,"89;90"
4550,12,15,7,1.0,"90;91"
4560,11,15,7,1.0,"90;91"
4570,12,15,7,1.0,"90;91"
4580,12,14,3,1.0,"90;91"
4590,14,10,6,1.0,"90;91"
4600,15,10,15,1.0,"91;92"
4610,15,10,15,1.0,"91;92"
4620,11,5,9,1.0,"91;92"
4630,7,1,12,-1.0,"91;92"
4640,8,3,14,-1.0,"91;92"
4650,8,4,12,-1.0,"92;93"
4660,5,6,11,-1.0,"92;93"
4670,2,13,11,-1.0,"92;93"
4680,1,14,10,-1.0,"92;93"
4690,1,14,7,-1.0,"92;93"
4700,2,12,12,-1.0,"93;94"
4710,4,10,13,-1.0,"93;94"
4720,8,3,15,-1.0,"93;94"
4730,9,0,14,-1.0,"93;94"
4740,11,4,7,-1.0,"93;94"
4750,15,6,6,-1.0,"94;95"
4760,14,5,12,-1.0,"94;95"
4770,10,1,8,-1.0,"94;95"
4780,8,1,8,-1.0,"94;95"
4790,8,2,3,-1.0,"94;95"
4800,5,3,12,-1.0,"95;96"
4810,5,8,13,-1.0,"95;96"
4820,1,11,12,-1.0,"95;96"
4830,2,13,12,-1.0,"95;96"
4840,1,12,13,-1.0,"95;96"
4850,2,11,13,-1.0,"96;97"
4860,4,7,10,-1.0,"96;97"
4870,8,2,4,-1.0,"96;97"
4880,9,0,13,-1.0,"96;97"
4890,12,4,11,-1.0,"96;97"
4900,15,6,12,-1.0,"97;98"
4910,12,7,2,-1.0,"97;98"
4920,9,3,9,-1.0,"97;98"
4930,8,2,8,-1.0,"97;98"
4940,8,3,8,-1.0,"97;98"
4950,4,6,11,-1.0,"98;99"
4960,4,8,8,-1.0,"98;99"
4970,2,11,10,-1.0,"98;99"
4980,1,13,12,-1.0,"98;99"
4990,1,13,7,-1.0,"98;99"
5000,4,11,14,-1.0,"99;100"
5010,9,5,11,-1.0,"99;100"
5020,9,4,9,-1.0,"99;100"
5030,9,3,9,-1.0,"99;100"
5040,11,6,0,-1.0,"99;100"
5050,11,3,2,-1.0,"100;101"
5060,7,0,15,-1.0,"100;101"
5070,8,2,15,-1.0,"100;101"
5080,8,5,13,-1.0,"100;101"
5090,5,9,12,-1.0,"100;101"
5100,3,12,10,-1.0,"101;102"
5110,3,13,9,-1.0,"101;102"
5120,2,12,11,-1.0,"101;102"
5130,3,11,12,-1.0,"101;102"
5140,5,6,12,-1.0,"101;102"
5150,9,3,3,-1.0,"102;103"
5160,10,3,4,-1.0,"102;103"
5170,13,6,0,-1.0,"102;103"
5180,14,6,8,-1.0,"102;103"
5190,10,4,1,-1.0,"102;103"
5200,6,0,10,-1.0,"103;104"
5210,4,0,9,-1.0,"103;104"
5220,5,2,9,-1.0,"103;104"
5230,4,6,1,-1.0,"103;104"
5240,2,10,2,-1.0,"103;104"
5250,0,12,6,-1.0,"104;105"
5260,0,13,2,-1.0,"104;105"
5270,0,12,4,-1.0,"104;105"
5280,1,12,4,-1.0,"104;105"
5290,2,11,11,-1.0,"104;105"
5300,4,7,7,-1.0,"105;106"
5310,5,1,9,-1.0,"105;106"
5320,6,0,1,-1.0,"105;106"
5330,10,2,0,-1.0,"105;106"
5340,12,6,0,-1.0,"105;106"
5350,13,6,0,-1.0,"106;107"
5360,12,7,0,-1.0,"106;107"
5370,10,4,4,-1.0,"106;107"
5380,5,1,8,-1.0,"106;107"
5390,5,1,11,-1.0,"106;107"
5400,5,2,12,-1.0,"107;108"
5410,5,5,3,-1.0,"107;108"
5420,3,11,8,-1.0,"107;108"
5430,0,13,9,-1.0,"107;108"
5440,0,15,11,-1.0,"107;108"
5450,0,15,9,-1.0,"108;109"
5460,0,15,12,-1.0,"108;109"
5470,1,14,10,-1.0,"108;109"
5480,2,11,6,-1.0,"108;109"
5490,4,9,7,-1.0,"108;109"
5500,5,1,12,-1.0,"109;110"
5510,7,1,15,-1.0,"109;110"
5520,10,2,15,-1.0,"109;110"
5530,12,5,13,-1.0,"109;110"
5540,14,7,13,-1.0,"109;110"
5550,12,7,0,-1.0,"110;111"
5560,9,2,1,-1.0,"110;111"
5570,9,2,9,-1.0,"110;111"
5580,8,4,1,-1.0,"110;111"
5590,7,7,4,-1.0,"110;111"
5600,3,9,9,-1.0,"111;112"
5610,0,12,10,-1.0,"111;112"
5620,0,14,8,-1.0,"111;112"
5630,2,12,6,-1.0,"111;112"
5640,7,8,9,-1.0,"111;112"
5650,8,5,7,-1.0,"112;113"
5660,10,3,11,-1.0,"112;113"
5670,11,6,2,-1.0,"112;113"
5680,14,7,1,-1.0,"112;113"
5690,11,6,0,-1.0,"112;113"
5700,9,2,8,-1.0,"113;114"
5710,9,2,15,-1.0,"113;114"
5720,7,3,13,-1.0,"113;114"
5730,7,7,2,-1.0,"113;114"
5740,6,9,5,-1.0,"113;114"
5750,4,13,14,-1.0,"114;115"
5760,4,13,15,-1.0,"114;115"
5770,5,12,15,-1.0,"114;115"
5780,8,8,15,-1.0,"114;115"
5790,8,5,6,-1.0,"114;115"
5800,10,3,5,-1.0,"115;116"
5810,12,6,2,-1.0,"115;116"
5820,14,7,2,-1.0,"115;116"
5830,14,7,13,-1.0,"115;116"
5840,12,6,3,-1.0,"115;116"
5850,10,3,13,-1.0,"116;117"
5860,7,0,14,-1.0,"116;117"
5870,6,0,10,-1.0,"116;117"
5880,5,1,14,-1.0,"116;117"
5890,6,5,15,-1.0,"116;117"
5900,3,9,14,-1.0,"117;118"
5910,1,13,7,-1.0,"117;118"
5920,1,14,9,-1.0,"117;118"
5930,1,15,3,-1.0,"117;118"
5940,1,15,4,-1.0,"117;118"
5950,2,13,4,-1.0,"118;119"
5960,3,11,4,-1.0,"118;119"
5970,5,6,5,-1.0,"118;119"
5980,8,1,8,-1.0,"118;119"
5990,8,0,10,-1.0,"118;119"
6000,10,2,5,-1.0,"119;120"
6010,12,5,3,-1.0,"119;120"
6020,12,6,2,-1.0,"119;120"
6030,11,3,4,-1.0,"119;120"
6040,7,0,11,-1.0,"119;120"
6050,7,0,9,-1.0,"120;121"
6060,6,2,5,-1.0,"120;121"
6070,5,7,2,-1.0,"120;121"
6080,4,11,9,-1.0,"120;121"
6090,1,14,10,-1.0,"120;121"
6100,0,14,7,-1.0,"121;122"
6110,0,14,7,-1.0,"121;122"
6120,2,13,9,-1.0,"121;122"
6130,4,11,5,-1.0,"121;122"
6140,6,4,5,-1.0,"121;122"
6150,7,2,6,-1.0,"122;123"
6160,8,1,11,-1.0,"122;123"
6170,11,4,4,-1.0,"122;123"
6180,14,7,4,-1.0,"122;123"
6190,14,8,1,1.0,"122;123"
6200,14,8,1,1.0,"123;124"
6210,14,8,2,1.0,"123;124"
6220,15,8,2,1.0,"123;124"
6230,14,9,1,1.0,"123;124"
6240,12,15,0,1.0,"123;124"
6250,12,15,0,1.0,"124;125"
6260,12,15,0,1.0,"124;125"
6270,11,15,0,1.0,"124;125"
6280,13,14,0,1.0,"124;125"
6290,13,15,0,1.0,"124;125"
6300,12,14,0,1.0,"125;126"
6310,12,14,0,1.0,"125;126"
6320,12,14,0,1.0,"125;126"
6330,10,7,1,1.0,"125;126"
6340,9,4,15,-1.0,"125;126"
6350,9,4,15,-1.0,"126;127"
6360,8,3,14,-1.0,"126;127"
6370,6,6,13,-1.0,"126;127"
6380,6,10,15,-1.0,"126;127"
6390,2,13,13,-1.0,"126;127"
6400,2,13,10,-1.0,"127;128"
6410,1,13,10,-1.0,"127;128"
6420,1,13,10,-1.0,"127;128"
6430,2,11,7,-1.0,"127;128"
6440,5,9,11,-1.0,"127;128"
6450,6,2,10,-1.0,"128;129"
6460,8,1,9,-1.0,"128;129"
6470,10,2,5,-1.0,"128;129"
6480,12,6,2,-1.0,"128;129"
6490,13,6,1,-1.0,"128;129"
6500,10,4,4,-1.0,"129;130"
6510,8,4,12,-1.0,"129;130"
6520,7,6,14,-1.0,"129;130"
6530,5,10,14,-1.0,"129;130"
6540,4,12,5,-1.0,"129;130"
6550,4,14,4,-1.0,"130;131"
6560,3,14,7,-1.0,"130;131"
6570,3,14,8,-1.0,"130;131"
6580,3,12,6,-1.0,"130;131"
6590,4,11,8,-1.0,"130;131"
6600,5,8,12,-1.0,"131;132"
6610,9,3,7,-1.0,"131;132"
6620,9,1,10,-1.0,"131;132"
6630,10,2,5,-1.0,"131;132"
6640,13,6,3,-1.0,"131;132"
6650,11,5,3,-1.0,"132;133"
6660,10,0,7,-1.0,"132;133"
6670,6,0,10,-1.0,"132;133"
6680,6,0,6,-1.0,"132;133"
6690,4,2,5,-1.0,"132;133"
6700,3,7,3,-1.0,"133;134"
6710,1,11,8,-1.0,"133;134"
6720,0,14,6,-1.0,"133;134"
6730,0,14,7,-1.0,"133;134"
6740,0,15,7,-1.0,"133;134"
6750,0,14,6,-1.0,"134;135"
6760,1,13,8,-1.0,"134;135"
6770,3,9,6,-1.0,"134;135"
6780,5,1,12,-1.0,"134;135"
6790,8,1,14,-1.0,"134;135"
6800,10,2,13,-1.0,"135;136"
6810,12,6,8,-1.0,"135;136"
6820,13,6,8,-1.0,"135;136"
6830,13,7,4,-1.0,"135;136"
6840,11,6,0,-1.0,"135;136"
6850,10,1,4,-1.0,"136;137"
6860,5,0,9,-1.0,"136;137"
6870,6,0,8,-1.0,"136;137"
6880,5,3,5,-1.0,"136;137"
6890,3,7,3,-1.0,"136;137"
6900,1,12,7,-1.0,"137;138"
6910,0,14,8,-1.0,"137;138"
6920,0,15,6,-1.0,"137;138"
6930,1,15,4,-1.0,"137;138"
6940,1,14,8,-1.0,"137;138"
6950,3,12,5,-1.0,"138;139"
6960,4,9,2,-1.0,"138;139"
6970,7,2,4,-1.0,"138;139"
6980,7,1,10,-1.0,"138;139"
6990,10,2,1,-1.0,"138;139"
7000,11,5,0,-1.0,"139;140"
7010,11,5,3,-1.0,"139;140"
7020,10,1,9,-1.0,"139;140"
7030,7,0,11,-1.0,"139;140"
7040,6,0,10,-1.0,"139;140"
7050,4,2,10,-1.0,"140;141"
7060,3,8,2,-1.0,"140;141"
7070,0,13,9,-1.0,"140;141"
7080,0,15,5,-1.0,"140;141"
7090,0,15,4,-1.0,"140;141"
7100,0,15,2,-1.0,"141;142"
7110,0,14,2,-1.0,"141;142"
7120,3,12,14,-1.0,"141;142"
7130,3,9,3,-1.0,"141;142"
7140,5,5,9,-1.0,"141;142"
7150,7,1,12,-1.0,"142;143"
7160,10,2,0,-1.0,"142;143"
7170,12,6,0,-1.0,"142;143"
7180,13,7,1,-1.0,"142;143"
7190,15,9,5,-1.0,"142;143"
7200,11,7,9,-1.0,"143;144"
7210,8,2,11,-1.0,"143;144"
7220,8,3,9,-1.0,"143;144"
7230,6,5,0,-1.0,"143;144"
7240,5,8,5,-1.0,"143;144"
7250,4,11,6,-1.0,"144;145"
7260,2,12,5,-1.0,"144;145"
7270,1,12,6,-1.0,"144;145"
7280,3,11,7,-1.0,"144;145"
7290,6,7,13,-1.0,"144;145"
7300,9,4,12,-1.0,"145;146"
7310,10,4,11,-1.0,"145;146"
7320,14,8,9,-1.0,"145;146"
7330,14,8,4,-1.0,"145;146"
7340,11,4,5,-1.0,"145;146"
7350,6,1,9,-1.0,"146;147"
7360,8,3,13,-1.0,"146;147"
7370,5,4,5,-1.0,"146;147"
7380,6,5,6,-1.0,"146;147"
7390,4,10,11,-1.0,"146;147"
7400,2,13,12,-1.0,"147;148"
7410,1,13,12,-1.0,"147;148"
7420,1,12,6,-1.0,"147;148"
7430,6,9,14,-1.0,"147;148"
7440,9,3,14,-1.0,"147;148"
7450,10,3,14,-1.0,"148;149"
7460,12,5,6,-1.0,"148;149"
7470,11,5,0,-1.0,"148;149"
7480,8,2,1,-1.0,"148;149"
7490,9,3,8,-1.0,"148;149"
7500,7,4,8,-1.0,"149;150"
7510,6,7,4,-1.0,"149;150"
7520,4,9,4,-1.0,"149;150"
7530,2,13,5,-1.0,"149;150"
7540,2,13,9,-1.0,"149;150"
7550,3,12,7,-1.0,"150;151"
7560,6,8,13,-1.0,"150;151"
7570,9,4,15,-1.0,"150;151"
7580,8,1,14,-1.0,"150;151"
7590,9,3,9,-1.0,"150;151"
7600,12,7,2,-1.0,"151;152"
7610,14,8,2,-1.0,"151;152"
7620,15,9,13,1.0,"151;152"
7630,15,10,15,1.0,"151;152"
7640,12,9,9,1.0,"151;152"
7650,14,9,13,1.0,"152;153"
7660,13,15,6,1.0,"152;153"
7670,12,15,6,1.0,"152;153"
7680,12,15,8,1.0,"152;153"
7690,12,15,7,1.0,"152;153"
7700,13,15,6,1.0,"153;154"
7710,13,14,3,1.0,"153;154"
7720,15,10,12,1.0,"153;154"
7730,15,11,14,1.0,"153;154"
7740,14,7,12,1.0,"153;154"
7750,14,6,11,-1.0,"154;155"
7760,11,3,14,-1.0,"154;155"
7770,5,0,7,-1.0,"154;155"
7780,8,2,3,-1.0,"154;155"
7790,8,4,5,-1.0,"154;155"
7800,7,5,13,-1.0,"155;156"
7810,4,7,6,-1.0,"155;156"
7820,3,12,4,-1.0,"155;156"
7830,1,13,4,-1.0,"155;156"
7840,2,11,7,-1.0,"155;156"
7850,7,7,14,-1.0,"156;157"
7860,8,3,3,-1.0,"156;157"
7870,9,1,14,-1.0,"156;157"
7880,10,1,11,-1.0,"156;157"
7890,13,5,11,-1.0,"156;157"
7900,14,6,9,-1.0,"157;158"
7910,14,7,5,-1.0,"157;158"
7920,14,10,11,1.0,"157;158"
7930,14,10,13,1.0,"157;158"
7940,15,10,14,1.0,"157;158"
7950,15,10,15,1.0,"158;159"
7960,13,11,15,1.0,"158;159"
7970,15,9,14,1.0,"158;159"
7980,13,15,0,1.0,"158;159"
7990,12,15,0,1.0,"158;159"
8000,12,15,0,1.0,"159;160"
8010,12,15,11,1.0,"159;160"
8020,12,15,5,1.0,"159;160"
8030,13,10,4,1.0,"159;160"
8040,15,10,14,1.0,"159;160"
8050,15,10,3,1.0,"160;161"
8060,13,9,10,1.0,"160;161"
8070,11,6,1,-1.0,"160;161"
8080,10,3,5,-1.0,"160;161"
8090,6,1,10,-1.0,"160;161"
8100,7,0,9,-1.0,"161;162"
8110,7,2,1,-1.0,"161;162"
8120,6,5,1,-1.0,"161;162"
8130,5,9,3,-1.0,"161;162"
8140,3,12,4,-1.0,"161;162"
8150,1,13,0,-1.0,"162;163"
8160,0,13,1,-1.0,"162;163"
8170,0,14,1,-1.0,"162;163"
8180,0,13,2,-1.0,"162;163"
8190,1,12,6,-1.0,"162;163"
8200,3,10,10,-1.0,"163;164"
8210,4,9,13,-1.0,"163;164"
8220,4,0,10,-1.0,"163;164"
8230,8,0,11,-1.0,"163;164"
8240,11,3,14,-1.0,"163;164"
8250,12,6,0,-1.0,"164;165"
8260,13,7,0,-1.0,"164;165"
8270,15,10,14,1.0,"164;165"
8280,15,10,15,1.0,"164;165"
8290,15,10,11,1.0,"164;165"
8300,15,10,15,1.0,"165;166"
8310,13,10,15,1.0,"165;166"
8320,15,9,15,1.0,"165;166"
8330,14,14,3,1.0,"165;166"
8340,13,15,8,1.0,"165;166"
8350,12,15,11,1.0,"166;167"
8360,13,15,11,1.0,"166;167"
8370,13,12,4,1.0,"166;167"
8380,13,9,13,1.0,"166;167"
8390,15,11,15,1.0,"166;167"
8400,15,11,15,1.0,"167;168"
8410,14,9,13,1.0,"167;168"
8420,13,6,12,-1.0,"167;168"
8430,11,4,13,-1.0,"167;168"
8440,9,0,13,-1.0,"167;168"
8450,6,0,6,-1.0,"168;169"
8460,6,1,7,-1.0,"168;169"
8470,5,4,3,-1.0,"168;169"
8480,3,9,5,-1.0,"168;169"
8490,1,14,11,-1.0,"168;169"
8500,0,14,5,-1.0,"169;170"
8510,1,14,15,-1.0,"169;170"
8520,2,14,15,-1.0,"169;170"
8530,2,12,14,-1.0,"169;170"
8540,4,11,5,-1.0,"169;170"
8550,4,6,9,-1.0,"170;171"
8560,6,1,14,-1.0,"170;171"
8570,9,0,15,-1.0,"170;171"
8580,11,4,14,-1.0,"170;171"
8590,13,7,10,-1.0,"170;171"
8600,11,5,6,-1.0,"171;172"
8610,8,3,10,-1.0,"171;172"
8620,7,4,10,-1.0,"171;172"
8630,6,7,5,-1.0,"171;172"
8640,6,9,4,-1.0,"171;172"
8650,2,11,6,-1.0,"172;173"
8660,1,12,9,-1.0,"172;173"
8670,1,11,9,-1.0,"172;173"
8680,3,9,7,-1.0,"172;173"
8690,8,5,8,-1.0,"172;173"
8700,9,3,13,-1.0,"173;174"
8710,10,5,4,-1.0,"173;174"
8720,13,8,1,-1.0,"173;174"
8730,14,8,2,-1.0,"173;174"
8740,14,7,3,-1.0,"173;174"
8750,10,2,12,-1.0,"174;175"
8760,8,1,15,-1.0,"174;175"
8770,7,2,15,-1.0,"174;175"
8780,8,4,11,-1.0,"174;175"
8790,5,6,9,-1.0,"174;175"
8800,2,10,13,-1.0,"175;176"
8810,2,13,12,-1.0,"175;176"
8820,1,13,12,-1.0,"175;176"
8830,1,12,5,-1.0,"175;176"
8840,3,11,13,-1.0,"175;176"
8850,6,8,13,-1.0,"176;177"
8860,9,2,14,-1.0,"176;177"
8870,10,4,13,-1.0,"176;177"
8880,13,6,1,-1.0,"176;177"
8890,11,5,2,-1.0,"176;177"
8900,10,1,6,-1.0,"177;178"
8910,5,0,9,-1.0,"177;178"
8920,7,0,11,-1.0,"177;178"
8930,6,2,13,-1.0,"177;178"
8940,5,4,9,-1.0,"177;178"
8950,3,9,4,-1.0,"178;179"
8960,1,13,8,-1.0,"178;179"
8970,1,14,8,-1.0,"178;179"
8980,1,14,8,-1.0,"178;179"
8990,1,14,8,-1.0,"178;179"
9000,2,12,6,-1.0,"179;180"
9010,3,9,1,-1.0,"179;180"
9020,5,2,7,-1.0,"179;180"
9030,7,1,11,-1.0,"179;180"
9040,10,2,2,-1.0,"179;180"
9050,11,6,1,-1.0,"180;181"
9060,15,10,14,-1.0,"180;181"
9070,15,10,14,1.0,"180;181"
9080,15,10,14,1.0,"180;181"
9090,15,10,15,1.0,"180;181"
9100,14,9,15,1.0,"181;182"
9110,13,10,14,1.0,"181;182"
9120,15,9,14,1.0,"181;182"
9130,14,14,1,1.0,"181;182"
9140,12,15,3,1.0,"181;182"
9150,11,15,9,1.0,"182;183"
9160,13,15,8,1.0,"182;183"
9170,13,13,2,1.0,"182;183"
9180,14,11,13,1.0,"182;183"
9190,15,10,15,1.0,"182;183"
9200,15,10,14,1.0,"183;184"
9210,13,7,3,1.0,"183;184"
9220,11,4,15,-1.0,"183;184"
9230,10,0,15,-1.0,"183;184"
9240,9,0,14,-1.0,"183;184"
9250,7,2,7,-1.0,"184;185"
9260,5,3,3,-1.0,"184;185"
9270,2,8,4,-1.0,"184;185"
9280,1,12,1,-1.0,"184;185"
9290,0,13,2,-1.0,"184;185"
9300,0,14,1,-1.0,"185;186"
9310,0,14,1,-1.0,"185;186"
9320,0,13,5,-1.0,"185;186"
9330,2,11,11,-1.0,"185;186"
9340,4,9,5,-1.0,"185;186"
9350,5,4,4,-1.0,"186;187"
9360,8,1,2,-1.0,"186;187"
9370,10,1,2,-1.0,"186;187"
9380,11,5,1,-1.0,"186;187"
9390,13,6,2,-1.0,"186;187"
9400,13,6,5,-1.0,"187;188"
9410,13,6,0,-1.0,"187;188"
9420,12,7,0,-1.0,"187;188"
9430,11,5,1,-1.0,"187;188"
9440,9,1,4,-1.0,"187;188"
9450,8,2,5,-1.0,"188;189"
9460,9,4,8,-1.0,"188;189"
9470,8,6,13,-1.0,"188;189"
9480,3,13,13,-1.0,"188;189"
9490,1,14,13,-1.0,"188;189"
9500,1,14,13,-1.0,"189;190"
9510,3,12,12,-1.0,"189;190"
9520,5,9,12,-1.0,"189;190"
9530,5,6,13,-1.0,"189;190"
9540,10,2,4,-1.0,"189;190"
9550,13,5,8,-1.0,"190;191"
9560,15,6,9,-1.0,"190;191"
9570,12,6,0,-1.0,"190;191"
9580,12,5,0,-1.0,"190;191"
9590,10,2,2,-1.0,"190;191"
9600,5,0,11,-1.0,"191;192"
9610,6,0,6,-1.0,"191;192"
9620,4,1,4,-1.0,"191;192"
9630,4,6,3,-1.0,"191;192"
9640,4,12,10,-1.0,"191;192"
9650,2,14,12,-1.0,"192;193"
9660,2,15,15,-1.0,"192;193"
9670,0,14,13,-1.0,"192;193"
9680,1,13,13,-1.0,"192;193"
9690,3,11,7,-1.0,"192;193"
9700,5,5,5,-1.0,"193;194"
9710,7,1,12,-1.0,"193;194"
9720,8,0,10,-1.0,"193;194"
9730,11,3,3,-1.0,"193;194"
9740,11,6,0,-1.0,"193;194"
9750,10,3,0,-1.0,"194;195"
9760,6,0,11,-1.0,"194;195"
9770,7,1,8,-1.0,"194;195"
9780,5,3,7,-1.0,"194;195"
9790,4,7,1,-1.0,"194;195"
9800,1,11,3,-1.0,"195;196"
9810,0,13,3,-1.0,"195;196"
9820,0,13,1,-1.0,"195;196"
9830,0,13,6,-1.0,"195;196"
9840,1,11,10,-1.0,"195;196"
9850,3,10,11,-1.0,"196;197"
9860,4,7,11,-1.0,"196;197"
9870,7,1,9,-1.0,"196;197"
9880,8,0,15,-1.0,"196;197"
9890,10,2,0,-1.0,"196;197"
9900,11,6,0,-1.0,"197;198"
9910,12,7,0,-1.0,"197;198"
9920,14,9,12,-1.0,"197;198"
9930,15,10,14,1.0,"197;198"
9940,15,10,15,1.0,"197;198"
9950,15,10,15,1.0,"198;199"
9960,13,10,15,1.0,"198;199"
9970,14,9,13,1.0,"198;199"
9980,15,12,14,1.0,"198;199"
9990,12,15,12,1.0,"198;199"
10000,11,15,10,1.0,"199;200"
10010,11,15,9,1.0,"199;200"
10020,12,15,11,1.0,"199;200"
10030,13,14,5,1.0,"199;200"
10040,13,10,13,1.0,"199;200"
10050,15,11,15,1.0,"200;201"
10060,15,11,13,1.0,"200;201"
10070,15,10,14,1.0,"200;201"
10080,14,9,11,1.0,"200;201"
10090,10,2,10,-1.0,"200;201"
10100,6,0,12,-1.0,"201;202"
10110,7,0,8,-1.0,"201;202"
10120,5,2,5,-1.0,"201;202"
10130,4,5,1,-1.0,"201;202"
10140,3,9,6,-1.0,"201;202"
10150,1,14,12,-1.0,"202;203"
10160,0,14,10,-1.0,"202;203"
10170,0,14,12,-1.0,"202;203"
10180,0,14,8,-1.0,"202;203"
10190,2,11,4,-1.0,"202;203"
10200,4,5,1,-1.0,"203;204"
10210,4,2,5,-1.0,"203;204"
10220,4,1,12,-1.0,"203;204"
10230,10,2,11,-1.0,"203;204"
10240,11,6,2,-1.0,"203;204"
10250,13,7,1,-1.0,"204;205"
10260,14,8,10,-1.0,"204;205"
10270,15,9,15,1.0,"204;205"
10280,15,11,15,1.0,"204;205"
10290,14,9,13,1.0,"204;205"
10300,15,13,14,1.0,"205;206"
10310,12,15,9,1.0,"205;206"
10320,11,15,12,1.0,"205;206"
10330,12,15,7,1.0,"205;206"
10340,14,15,10,1.0,"205;206"
10350,13,14,1,1.0,"206;207"
10360,15,10,10,1.0,"206;207"
10370,14,10,13,1.0,"206;207"
10380,10,4,0,-1.0,"206;207"
10390,9,3,11,-1.0,"206;207"
10400,8,3,9,-1.0,"207;208"
10410,9,5,2,-1.0,"207;208"
10420,6,7,4,-1.0,"207;208"
10430,3,11,6,-1.0,"207;208"
10440,3,12,8,-1.0,"207;208"
10450,3,11,9,-1.0,"208;209"
10460,7,8,10,-1.0,"208;209"
10470,9,4,13,-1.0,"208;209"
10480,9,3,14,-1.0,"208;209"
10490,10,5,6,-1.0,"208;209"
10500,13,8,2,-1.0,"209;210"
10510,14,8,1,-1.0,"209;210"
10520,14,8,2,-1.0,"209;210"
10530,14,8,2,-1.0,"209;210"
10540,14,9,13,-1.0,"209;210"
10550,15,10,14,1.0,"210;211"
10560,15,10,13,1.0,"210;211"
10570,15,10,14,1.0,"210;211"
10580,15,10,15,1.0,"210;211"
10590,13,10,12,1.0,"210;211"
10600,15,9,14,1.0,"211;212"
10610,13,15,9,1.0,"211;212"
10620,12,15,10,1.0,"211;212"
10630,11,15,9,1.0,"211;212"
10640,12,15,8,1.0,"211;212"
10650,13,15,6,1.0,"212;213"
10660,14,11,2,1.0,"212;213"
10670,15,10,3,1.0,"212;213"
10680,15,10,15,1.0,"212;213"
10690,11,5,11,1.0,"212;213"
10700,8,1,13,-1.0,"213;214"
10710,7,3,12,-1.0,"213;214"
10720,7,4,10,-1.0,"213;214"
10730,7,6,1,-1.0,"213;214"
10740,6,8,3,-1.0,"213;214"
10750,2,12,7,-1.0,"214;215"
10760,1,13,9,-1.0,"214;215"
10770,1,11,7,-1.0,"214;215"
10780,5,9,15,-1.0,"214;215"
10790,9,4,13,-1.0,"214;215"
10800,9,3,15,-1.0,"215;216"
10810,9,3,7,-1.0,"215;216"
10820,11,6,2,-1.0,"215;216"
10830,14,8,1,-1.0,"215;216"
10840,14,8,1,-1.0,"215;216"
10850,11,5,3,-1.0,"216;217"
10860,9,3,10,-1.0,"216;217"
10870,8,3,10,-1.0,"216;217"
10880,6,6,8,-1.0,"216;217"
10890,7,9,3,-1.0,"216;217"
10900,3,11,6,-1.0,"217;218"
10910,2,12,5,-1.0,"217;218"
10920,2,11,5,-1.0,"217;218"
10930,4,9,9,-1.0,"217;218"
10940,8,4,10,-1.0,"217;218"
10950,9,3,11,-1.0,"218;219"
10960,11,5,6,-1.0,"218;219"
10970,11,5,1,-1.0,"218;219"
10980,10,1,2,-1.0,"218;219"
10990,6,0,11,-1.0,"218;219"
11000,6,0,8,-1.0,"219;220"
11010,5,2,12,-1.0,"219;220"
11020,4,7,10,-1.0,"219;220"
11030,1,10,3,-1.0,"219;220"
11040,0,12,4,-1.0,"219;220"
11050,0,13,2,-1.0,"220;221"
11060,0,13,8,-1.0,"220;221"
11070,0,12,4,-1.0,"220;221"
11080,1,11,9,-1.0,"220;221"
11090,4,8,11,-1.0,"220;221"
11100,5,2,10,-1.0,"221;222"
11110,6,1,5,-1.0,"221;222"
11120,9,1,3,-1.0,"221;222"
11130,11,5,0,-1.0,"221;222"
11140,13,7,0,-1.0,"221;222"